<svg version="1.1" xmlns="http://www.w3.org/2000/svg" viewBox="0 0 1024 1024">
<path d="M732.14 1024.001c7.289 0 14.576 0 21.865-7.289 14.576-14.576 14.576-36.441 0-51.018l-415.43-451.871 422.719-451.871c14.576-14.576 7.289-36.441-7.289-51.018s-36.441-14.576-51.018 0l-437.295 473.736c-14.576 14.576-14.576 36.441 0 51.018l437.295 473.736c7.289 7.289 21.865 14.576 29.154 14.576z"></path>
</svg>
