<svg version="1.1" xmlns="http://www.w3.org/2000/svg" viewBox="0 0 1024 1024">
<path d="M478.533 917.945v-510.206c-97.092-16.288-171.074-100.729-171.074-202.45 0-113.377 91.912-205.289 205.289-205.289s205.289 91.912 205.289 205.289c0 101.721-73.982 186.162-171.074 202.45v508.938l283.601-239.793c14.43-12.2 36.017-10.394 48.219 4.035s10.394 36.017-4.035 48.219l-339.164 286.774c-6.84 5.783-15.288 8.418-23.583 8.056-8.295 0.364-16.742-2.273-23.583-8.056l-339.164-286.774c-14.43-12.2-16.237-33.789-4.035-48.219s33.789-16.237 48.219-4.035l285.099 241.060zM512.747 342.149c75.585 0 136.859-61.274 136.859-136.859s-61.274-136.859-136.859-136.859c-75.585 0-136.859 61.274-136.859 136.859s61.274 136.859 136.859 136.859z"></path>
</svg>
