<svg version="1.1" xmlns="http://www.w3.org/2000/svg" viewBox="0 0 1024 1024">
<path d="M511.998 0c28.277 0 51.199 22.922 51.199 51.199v921.601c0 28.277-22.922 51.199-51.199 51.199s-51.199-22.922-51.199-51.199v-921.601c0-28.277 22.922-51.199 51.199-51.199z"></path>
<path d="M1024 512v0c0 28.277-22.922 51.199-51.199 51.199h-921.601c-28.277 0-51.199-22.922-51.199-51.199v0c0-28.277 22.922-51.199 51.199-51.199h921.601c28.277 0 51.199 22.922 51.199 51.199z"></path>
</svg>
